[
	{
		"originalSrc": "https://images.chamaileon.io/5a82ba071a34beb32051e469/ohuvpkj8tkjrnowyhwex.jpg",
		"path": "ohuvpkj8tkjrnowyhwex.jpg",
		"name": "ohuvpkj8tkjrnowyhwex.jpg",
		"src": "images/ohuvpkj8tkjrnowyhwex.jpg",
		"contentType": "image/jpeg",
		"galleryId": null,
		"count": 1
	},
	{
		"originalSrc": "https://images.chamaileon.io/5a82ba071a34beb32051e469/eowtt3iwpjjctcqqaptt.png",
		"path": "eowtt3iwpjjctcqqaptt.png",
		"name": "eowtt3iwpjjctcqqaptt.png",
		"src": "images/eowtt3iwpjjctcqqaptt.png",
		"contentType": "image/png",
		"galleryId": null,
		"count": 1
	},
	{
		"originalSrc": "https://images.chamaileon.io/5a82ba071a34beb32051e469/tnnkbym5xwnwkeaaq2zs.png",
		"path": "tnnkbym5xwnwkeaaq2zs.png",
		"name": "tnnkbym5xwnwkeaaq2zs.png",
		"src": "images/tnnkbym5xwnwkeaaq2zs.png",
		"contentType": "image/png",
		"galleryId": null,
		"count": 1
	}
]